% Created by tikzDevice version 0.7.0 on 2014-03-17 11:39:08
% !TEX encoding = UTF-8 Unicode
\begin{tikzpicture}[x=1pt,y=1pt]
\definecolor[named]{fillColor}{rgb}{1.00,1.00,1.00}
\path[use as bounding box,fill=fillColor,fill opacity=0.00] (0,0) rectangle (332.44,166.22);
\begin{scope}
\path[clip] (  0.00,  0.00) rectangle (332.44,166.22);
\definecolor[named]{drawColor}{rgb}{1.00,1.00,1.00}
\definecolor[named]{fillColor}{rgb}{1.00,1.00,1.00}

\path[draw=drawColor,line width= 0.6pt,line join=round,line cap=round,fill=fillColor] (  0.00,  0.00) rectangle (332.44,166.22);
\end{scope}
\begin{scope}
\path[clip] ( 54.11, 32.79) rectangle (244.30,154.18);
\definecolor[named]{fillColor}{rgb}{1.00,1.00,1.00}

\path[fill=fillColor] ( 54.11, 32.79) rectangle (244.30,154.18);
\definecolor[named]{drawColor}{rgb}{0.97,0.46,0.43}

\path[draw=drawColor,line width= 0.6pt,line join=round] ( 62.75, 38.31) --
	( 90.25, 63.03) --
	(103.04,122.96) --
	(111.46,142.86) --
	(117.75,104.43) --
	(122.77,105.06) --
	(137.74,101.26) --
	(155.09,114.34) --
	(165.23,106.01) --
	(172.43,123.42) --
	(178.02,125.59) --
	(182.58,125.30) --
	(186.44,120.03) --
	(189.78,114.34) --
	(192.73,107.76) --
	(195.37,122.19) --
	(212.72,121.47) --
	(222.87,122.60) --
	(230.07,122.08) --
	(235.66,121.94);
\definecolor[named]{drawColor}{rgb}{0.00,0.75,0.77}

\path[draw=drawColor,line width= 0.6pt,line join=round] ( 62.75, 80.64) --
	( 90.25, 92.22) --
	(103.04,113.87) --
	(111.46,148.66) --
	(117.75,103.58) --
	(122.77,110.25) --
	(137.74,105.65) --
	(155.09,111.88) --
	(165.23,103.50) --
	(172.43,124.29) --
	(178.02,128.32) --
	(182.58,124.50) --
	(186.44,119.24) --
	(189.78,114.23) --
	(192.73,107.75) --
	(195.37,123.06) --
	(212.72,121.91) --
	(222.87,122.24) --
	(230.07,121.83) --
	(235.66,122.13);
\definecolor[named]{drawColor}{rgb}{0.97,0.46,0.43}

\path[draw=drawColor,line width= 0.6pt,dash pattern=on 2pt off 2pt ,line join=round] ( 62.75,135.71) --
	( 90.25,112.30) --
	(103.04,119.80) --
	(111.46,122.70) --
	(117.75,114.42) --
	(122.77,121.01) --
	(137.74,120.55) --
	(155.09,119.49) --
	(165.23,118.69) --
	(172.43,121.08) --
	(178.02,118.33) --
	(182.58,121.99) --
	(186.44,119.51) --
	(189.78,118.99) --
	(192.73,119.56) --
	(195.37,120.47) --
	(212.72,120.49) --
	(222.87,120.01) --
	(230.07,120.03) --
	(235.66,119.63);
\definecolor[named]{drawColor}{rgb}{0.00,0.75,0.77}

\path[draw=drawColor,line width= 0.6pt,dash pattern=on 2pt off 2pt ,line join=round] ( 62.75,131.49) --
	( 90.25,117.92) --
	(103.04,117.93) --
	(111.46,118.09) --
	(117.75,113.91) --
	(122.77,120.59) --
	(137.74,122.01) --
	(155.09,119.35) --
	(165.23,119.52) --
	(172.43,121.40) --
	(178.02,117.88) --
	(182.58,121.50) --
	(186.44,119.18) --
	(189.78,118.73) --
	(192.73,119.99) --
	(195.37,119.26) --
	(212.72,120.23) --
	(222.87,120.10) --
	(230.07,119.83) --
	(235.66,119.44);
\definecolor[named]{drawColor}{rgb}{0.97,0.46,0.43}

\path[draw=drawColor,line width= 0.6pt,dash pattern=on 4pt off 2pt ,line join=round] ( 62.75,117.25) --
	( 90.25,120.95) --
	(103.04,119.78) --
	(111.46,122.47) --
	(117.75,120.58) --
	(122.77,119.86) --
	(137.74,119.24) --
	(155.09,119.66) --
	(165.23,118.59) --
	(172.43,119.25) --
	(178.02,119.39) --
	(182.58,119.58) --
	(186.44,120.35) --
	(189.78,119.40) --
	(192.73,119.96) --
	(195.37,119.59) --
	(212.72,119.32) --
	(222.87,119.63) --
	(230.07,119.32) --
	(235.66,119.50);
\definecolor[named]{drawColor}{rgb}{0.00,0.75,0.77}

\path[draw=drawColor,line width= 0.6pt,dash pattern=on 4pt off 2pt ,line join=round] ( 62.75,118.99) --
	( 90.25,120.38) --
	(103.04,119.26) --
	(111.46,120.04) --
	(117.75,120.00) --
	(122.77,119.79) --
	(137.74,119.52) --
	(155.09,120.20) --
	(165.23,119.02) --
	(172.43,119.61) --
	(178.02,119.39) --
	(182.58,119.53) --
	(186.44,120.45) --
	(189.78,119.95) --
	(192.73,119.97) --
	(195.37,119.66) --
	(212.72,119.55) --
	(222.87,119.61) --
	(230.07,119.43) --
	(235.66,119.52);
\end{scope}
\begin{scope}
\path[clip] (  0.00,  0.00) rectangle (332.44,166.22);
\definecolor[named]{drawColor}{rgb}{0.00,0.00,0.00}

\path[draw=drawColor,line width= 0.6pt,line join=round] ( 54.11, 32.79) --
	( 54.11,154.18);
\end{scope}
\begin{scope}
\path[clip] (  0.00,  0.00) rectangle (332.44,166.22);
\definecolor[named]{drawColor}{rgb}{0.00,0.00,0.00}

\node[text=drawColor,anchor=base east,inner sep=0pt, outer sep=0pt, scale=  0.88] at ( 46.99, 55.35) {-0.0050};

\node[text=drawColor,anchor=base east,inner sep=0pt, outer sep=0pt, scale=  0.88] at ( 46.99, 85.95) {-0.0025};

\node[text=drawColor,anchor=base east,inner sep=0pt, outer sep=0pt, scale=  0.88] at ( 46.99,116.55) {0.0000};

\node[text=drawColor,anchor=base east,inner sep=0pt, outer sep=0pt, scale=  0.88] at ( 46.99,147.15) {0.0025};
\end{scope}
\begin{scope}
\path[clip] (  0.00,  0.00) rectangle (332.44,166.22);
\definecolor[named]{drawColor}{rgb}{0.00,0.00,0.00}

\path[draw=drawColor,line width= 0.6pt,line join=round] ( 49.84, 58.38) --
	( 54.11, 58.38);

\path[draw=drawColor,line width= 0.6pt,line join=round] ( 49.84, 88.98) --
	( 54.11, 88.98);

\path[draw=drawColor,line width= 0.6pt,line join=round] ( 49.84,119.58) --
	( 54.11,119.58);

\path[draw=drawColor,line width= 0.6pt,line join=round] ( 49.84,150.18) --
	( 54.11,150.18);
\end{scope}
\begin{scope}
\path[clip] (  0.00,  0.00) rectangle (332.44,166.22);
\definecolor[named]{drawColor}{rgb}{0.00,0.00,0.00}

\path[draw=drawColor,line width= 0.6pt,line join=round] ( 54.11, 32.79) --
	(244.30, 32.79);
\end{scope}
\begin{scope}
\path[clip] (  0.00,  0.00) rectangle (332.44,166.22);
\definecolor[named]{drawColor}{rgb}{0.00,0.00,0.00}

\path[draw=drawColor,line width= 0.6pt,line join=round] ( 80.10, 28.53) --
	( 80.10, 32.79);

\path[draw=drawColor,line width= 0.6pt,line join=round] (137.74, 28.53) --
	(137.74, 32.79);

\path[draw=drawColor,line width= 0.6pt,line join=round] (195.37, 28.53) --
	(195.37, 32.79);
\end{scope}
\begin{scope}
\path[clip] (  0.00,  0.00) rectangle (332.44,166.22);
\definecolor[named]{drawColor}{rgb}{0.00,0.00,0.00}

\node[text=drawColor,anchor=base,inner sep=0pt, outer sep=0pt, scale=  0.88] at ( 80.10, 19.62) {100};

\node[text=drawColor,anchor=base,inner sep=0pt, outer sep=0pt, scale=  0.88] at (137.74, 19.62) {1000};

\node[text=drawColor,anchor=base,inner sep=0pt, outer sep=0pt, scale=  0.88] at (195.37, 19.62) {10000};
\end{scope}
\begin{scope}
\path[clip] (  0.00,  0.00) rectangle (332.44,166.22);
\definecolor[named]{drawColor}{rgb}{0.00,0.00,0.00}

\node[text=drawColor,anchor=base,inner sep=0pt, outer sep=0pt, scale=  1.10] at (149.20,  6.62) {$a_0$};
\end{scope}
\begin{scope}
\path[clip] (  0.00,  0.00) rectangle (332.44,166.22);
\definecolor[named]{drawColor}{rgb}{0.00,0.00,0.00}

\node[text=drawColor,rotate= 90.00,anchor=base,inner sep=0pt, outer sep=0pt, scale=  1.10] at (  8.14, 93.49) {mediana fase};
\end{scope}
\begin{scope}
\path[clip] (  0.00,  0.00) rectangle (332.44,166.22);
\definecolor[named]{fillColor}{rgb}{1.00,1.00,1.00}

\path[fill=fillColor] (253.17,102.52) rectangle (311.53,144.82);
\end{scope}
\begin{scope}
\path[clip] (  0.00,  0.00) rectangle (332.44,166.22);
\definecolor[named]{drawColor}{rgb}{0.00,0.00,0.00}

\node[text=drawColor,anchor=base west,inner sep=0pt, outer sep=0pt, scale=  0.88] at (257.44,134.49) {algoritmo};
\end{scope}
\begin{scope}
\path[clip] (  0.00,  0.00) rectangle (332.44,166.22);
\definecolor[named]{drawColor}{rgb}{0.80,0.80,0.80}
\definecolor[named]{fillColor}{rgb}{1.00,1.00,1.00}

\path[draw=drawColor,line width= 0.6pt,line join=round,line cap=round,fill=fillColor] (257.44,118.83) rectangle (269.48,130.88);
\end{scope}
\begin{scope}
\path[clip] (  0.00,  0.00) rectangle (332.44,166.22);
\definecolor[named]{drawColor}{rgb}{0.97,0.46,0.43}

\path[draw=drawColor,line width= 0.6pt,line join=round] (258.64,124.85) -- (268.28,124.85);
\end{scope}
\begin{scope}
\path[clip] (  0.00,  0.00) rectangle (332.44,166.22);
\definecolor[named]{drawColor}{rgb}{0.80,0.80,0.80}
\definecolor[named]{fillColor}{rgb}{1.00,1.00,1.00}

\path[draw=drawColor,line width= 0.6pt,line join=round,line cap=round,fill=fillColor] (257.44,106.79) rectangle (269.48,118.83);
\end{scope}
\begin{scope}
\path[clip] (  0.00,  0.00) rectangle (332.44,166.22);
\definecolor[named]{drawColor}{rgb}{0.00,0.75,0.77}

\path[draw=drawColor,line width= 0.6pt,line join=round] (258.64,112.81) -- (268.28,112.81);
\end{scope}
\begin{scope}
\path[clip] (  0.00,  0.00) rectangle (332.44,166.22);
\definecolor[named]{drawColor}{rgb}{0.00,0.00,0.00}

\node[text=drawColor,anchor=base west,inner sep=0pt, outer sep=0pt, scale=  0.88] at (271.29,121.82) {fft};
\end{scope}
\begin{scope}
\path[clip] (  0.00,  0.00) rectangle (332.44,166.22);
\definecolor[named]{drawColor}{rgb}{0.00,0.00,0.00}

\node[text=drawColor,anchor=base west,inner sep=0pt, outer sep=0pt, scale=  0.88] at (271.29,109.78) {fit pesato};
\end{scope}
\begin{scope}
\path[clip] (  0.00,  0.00) rectangle (332.44,166.22);
\definecolor[named]{fillColor}{rgb}{1.00,1.00,1.00}

\path[fill=fillColor] (253.17, 42.15) rectangle (294.74, 96.50);
\end{scope}
\begin{scope}
\path[clip] (  0.00,  0.00) rectangle (332.44,166.22);
\definecolor[named]{drawColor}{rgb}{0.00,0.00,0.00}

\node[text=drawColor,anchor=base west,inner sep=0pt, outer sep=0pt, scale=  0.88] at (257.44, 86.17) {visibilit\`a};
\end{scope}
\begin{scope}
\path[clip] (  0.00,  0.00) rectangle (332.44,166.22);
\definecolor[named]{drawColor}{rgb}{0.80,0.80,0.80}
\definecolor[named]{fillColor}{rgb}{1.00,1.00,1.00}

\path[draw=drawColor,line width= 0.6pt,line join=round,line cap=round,fill=fillColor] (257.44, 70.51) rectangle (269.48, 82.55);
\end{scope}
\begin{scope}
\path[clip] (  0.00,  0.00) rectangle (332.44,166.22);
\definecolor[named]{drawColor}{rgb}{0.00,0.00,0.00}

\path[draw=drawColor,line width= 0.6pt,line join=round] (258.64, 76.53) -- (268.28, 76.53);
\end{scope}
\begin{scope}
\path[clip] (  0.00,  0.00) rectangle (332.44,166.22);
\definecolor[named]{drawColor}{rgb}{0.80,0.80,0.80}
\definecolor[named]{fillColor}{rgb}{1.00,1.00,1.00}

\path[draw=drawColor,line width= 0.6pt,line join=round,line cap=round,fill=fillColor] (257.44, 58.46) rectangle (269.48, 70.51);
\end{scope}
\begin{scope}
\path[clip] (  0.00,  0.00) rectangle (332.44,166.22);
\definecolor[named]{drawColor}{rgb}{0.00,0.00,0.00}

\path[draw=drawColor,line width= 0.6pt,dash pattern=on 2pt off 2pt ,line join=round] (258.64, 64.49) -- (268.28, 64.49);
\end{scope}
\begin{scope}
\path[clip] (  0.00,  0.00) rectangle (332.44,166.22);
\definecolor[named]{drawColor}{rgb}{0.80,0.80,0.80}
\definecolor[named]{fillColor}{rgb}{1.00,1.00,1.00}

\path[draw=drawColor,line width= 0.6pt,line join=round,line cap=round,fill=fillColor] (257.44, 46.42) rectangle (269.48, 58.46);
\end{scope}
\begin{scope}
\path[clip] (  0.00,  0.00) rectangle (332.44,166.22);
\definecolor[named]{drawColor}{rgb}{0.00,0.00,0.00}

\path[draw=drawColor,line width= 0.6pt,dash pattern=on 4pt off 2pt ,line join=round] (258.64, 52.44) -- (268.28, 52.44);
\end{scope}
\begin{scope}
\path[clip] (  0.00,  0.00) rectangle (332.44,166.22);
\definecolor[named]{drawColor}{rgb}{0.00,0.00,0.00}

\node[text=drawColor,anchor=base west,inner sep=0pt, outer sep=0pt, scale=  0.88] at (271.29, 73.50) {0.05};
\end{scope}
\begin{scope}
\path[clip] (  0.00,  0.00) rectangle (332.44,166.22);
\definecolor[named]{drawColor}{rgb}{0.00,0.00,0.00}

\node[text=drawColor,anchor=base west,inner sep=0pt, outer sep=0pt, scale=  0.88] at (271.29, 61.46) {0.3};
\end{scope}
\begin{scope}
\path[clip] (  0.00,  0.00) rectangle (332.44,166.22);
\definecolor[named]{drawColor}{rgb}{0.00,0.00,0.00}

\node[text=drawColor,anchor=base west,inner sep=0pt, outer sep=0pt, scale=  0.88] at (271.29, 49.41) {0.9};
\end{scope}
\end{tikzpicture}
