% Created by tikzDevice version 0.7.0 on 2014-03-17 11:39:10
% !TEX encoding = UTF-8 Unicode
\begin{tikzpicture}[x=1pt,y=1pt]
\definecolor[named]{fillColor}{rgb}{1.00,1.00,1.00}
\path[use as bounding box,fill=fillColor,fill opacity=0.00] (0,0) rectangle (332.44,166.22);
\begin{scope}
\path[clip] (  0.00,  0.00) rectangle (332.44,166.22);
\definecolor[named]{drawColor}{rgb}{1.00,1.00,1.00}
\definecolor[named]{fillColor}{rgb}{1.00,1.00,1.00}

\path[draw=drawColor,line width= 0.6pt,line join=round,line cap=round,fill=fillColor] (  0.00,  0.00) rectangle (332.44,166.22);
\end{scope}
\begin{scope}
\path[clip] ( 42.37, 32.79) rectangle (244.30,154.18);
\definecolor[named]{fillColor}{rgb}{1.00,1.00,1.00}

\path[fill=fillColor] ( 42.37, 32.79) rectangle (244.30,154.18);
\definecolor[named]{drawColor}{rgb}{0.97,0.46,0.43}

\path[draw=drawColor,line width= 0.6pt,line join=round] ( 51.55, 43.41) --
	( 80.75, 40.17) --
	( 94.32, 39.42) --
	(103.26, 39.10) --
	(109.94, 38.95) --
	(115.28, 38.82) --
	(131.16, 38.58) --
	(149.58, 38.44) --
	(160.36, 38.40) --
	(168.00, 38.38) --
	(173.93, 38.36) --
	(178.78, 38.35) --
	(182.87, 38.35) --
	(186.42, 38.34) --
	(189.55, 38.34) --
	(192.35, 38.34) --
	(210.77, 38.32) --
	(221.55, 38.31) --
	(229.19, 38.31) --
	(235.12, 38.31);
\definecolor[named]{drawColor}{rgb}{0.00,0.75,0.77}

\path[draw=drawColor,line width= 0.6pt,line join=round] ( 51.55, 43.65) --
	( 80.75, 40.21) --
	( 94.32, 39.45) --
	(103.26, 39.10) --
	(109.94, 38.96) --
	(115.28, 38.83) --
	(131.16, 38.59) --
	(149.58, 38.44) --
	(160.36, 38.40) --
	(168.00, 38.38) --
	(173.93, 38.36) --
	(178.78, 38.35) --
	(182.87, 38.35) --
	(186.42, 38.34) --
	(189.55, 38.34) --
	(192.35, 38.34) --
	(210.77, 38.32) --
	(221.55, 38.31) --
	(229.19, 38.31) --
	(235.12, 38.31);
\definecolor[named]{drawColor}{rgb}{0.97,0.46,0.43}

\path[draw=drawColor,line width= 0.6pt,dash pattern=on 2pt off 2pt ,line join=round] ( 51.55, 71.37) --
	( 80.75, 70.68) --
	( 94.32, 70.56) --
	(103.26, 70.47) --
	(109.94, 70.45) --
	(115.28, 70.45) --
	(131.16, 70.39) --
	(149.58, 70.38) --
	(160.36, 70.37) --
	(168.00, 70.36) --
	(173.93, 70.36) --
	(178.78, 70.37) --
	(182.87, 70.36) --
	(186.42, 70.36) --
	(189.55, 70.35) --
	(192.35, 70.36) --
	(210.77, 70.36) --
	(221.55, 70.36) --
	(229.19, 70.36) --
	(235.12, 70.35);
\definecolor[named]{drawColor}{rgb}{0.00,0.75,0.77}

\path[draw=drawColor,line width= 0.6pt,dash pattern=on 2pt off 2pt ,line join=round] ( 51.55, 71.83) --
	( 80.75, 70.82) --
	( 94.32, 70.65) --
	(103.26, 70.53) --
	(109.94, 70.51) --
	(115.28, 70.49) --
	(131.16, 70.41) --
	(149.58, 70.39) --
	(160.36, 70.38) --
	(168.00, 70.36) --
	(173.93, 70.36) --
	(178.78, 70.37) --
	(182.87, 70.36) --
	(186.42, 70.36) --
	(189.55, 70.36) --
	(192.35, 70.36) --
	(210.77, 70.36) --
	(221.55, 70.36) --
	(229.19, 70.36) --
	(235.12, 70.35);
\definecolor[named]{drawColor}{rgb}{0.97,0.46,0.43}

\path[draw=drawColor,line width= 0.6pt,dash pattern=on 4pt off 2pt ,line join=round] ( 51.55,147.62) --
	( 80.75,147.39) --
	( 94.32,147.35) --
	(103.26,147.29) --
	(109.94,147.30) --
	(115.28,147.30) --
	(131.16,147.28) --
	(149.58,147.27) --
	(160.36,147.27) --
	(168.00,147.27) --
	(173.93,147.27) --
	(178.78,147.26) --
	(182.87,147.27) --
	(186.42,147.26) --
	(189.55,147.26) --
	(192.35,147.26) --
	(210.77,147.26) --
	(221.55,147.26) --
	(229.19,147.26) --
	(235.12,147.26);
\definecolor[named]{drawColor}{rgb}{0.00,0.75,0.77}

\path[draw=drawColor,line width= 0.6pt,dash pattern=on 4pt off 2pt ,line join=round] ( 51.55,148.66) --
	( 80.75,147.73) --
	( 94.32,147.55) --
	(103.26,147.45) --
	(109.94,147.41) --
	(115.28,147.39) --
	(131.16,147.33) --
	(149.58,147.30) --
	(160.36,147.29) --
	(168.00,147.28) --
	(173.93,147.28) --
	(178.78,147.27) --
	(182.87,147.27) --
	(186.42,147.27) --
	(189.55,147.27) --
	(192.35,147.27) --
	(210.77,147.26) --
	(221.55,147.26) --
	(229.19,147.26) --
	(235.12,147.26);
\end{scope}
\begin{scope}
\path[clip] (  0.00,  0.00) rectangle (332.44,166.22);
\definecolor[named]{drawColor}{rgb}{0.00,0.00,0.00}

\path[draw=drawColor,line width= 0.6pt,line join=round] ( 42.37, 32.79) --
	( 42.37,154.18);
\end{scope}
\begin{scope}
\path[clip] (  0.00,  0.00) rectangle (332.44,166.22);
\definecolor[named]{drawColor}{rgb}{0.00,0.00,0.00}

\node[text=drawColor,anchor=base east,inner sep=0pt, outer sep=0pt, scale=  0.88] at ( 35.26, 60.91) {0.25};

\node[text=drawColor,anchor=base east,inner sep=0pt, outer sep=0pt, scale=  0.88] at ( 35.26, 92.96) {0.50};

\node[text=drawColor,anchor=base east,inner sep=0pt, outer sep=0pt, scale=  0.88] at ( 35.26,125.00) {0.75};
\end{scope}
\begin{scope}
\path[clip] (  0.00,  0.00) rectangle (332.44,166.22);
\definecolor[named]{drawColor}{rgb}{0.00,0.00,0.00}

\path[draw=drawColor,line width= 0.6pt,line join=round] ( 38.11, 63.94) --
	( 42.37, 63.94);

\path[draw=drawColor,line width= 0.6pt,line join=round] ( 38.11, 95.99) --
	( 42.37, 95.99);

\path[draw=drawColor,line width= 0.6pt,line join=round] ( 38.11,128.03) --
	( 42.37,128.03);
\end{scope}
\begin{scope}
\path[clip] (  0.00,  0.00) rectangle (332.44,166.22);
\definecolor[named]{drawColor}{rgb}{0.00,0.00,0.00}

\path[draw=drawColor,line width= 0.6pt,line join=round] ( 42.37, 32.79) --
	(244.30, 32.79);
\end{scope}
\begin{scope}
\path[clip] (  0.00,  0.00) rectangle (332.44,166.22);
\definecolor[named]{drawColor}{rgb}{0.00,0.00,0.00}

\path[draw=drawColor,line width= 0.6pt,line join=round] ( 69.97, 28.53) --
	( 69.97, 32.79);

\path[draw=drawColor,line width= 0.6pt,line join=round] (131.16, 28.53) --
	(131.16, 32.79);

\path[draw=drawColor,line width= 0.6pt,line join=round] (192.35, 28.53) --
	(192.35, 32.79);
\end{scope}
\begin{scope}
\path[clip] (  0.00,  0.00) rectangle (332.44,166.22);
\definecolor[named]{drawColor}{rgb}{0.00,0.00,0.00}

\node[text=drawColor,anchor=base,inner sep=0pt, outer sep=0pt, scale=  0.88] at ( 69.97, 19.62) {100};

\node[text=drawColor,anchor=base,inner sep=0pt, outer sep=0pt, scale=  0.88] at (131.16, 19.62) {1000};

\node[text=drawColor,anchor=base,inner sep=0pt, outer sep=0pt, scale=  0.88] at (192.35, 19.62) {10000};
\end{scope}
\begin{scope}
\path[clip] (  0.00,  0.00) rectangle (332.44,166.22);
\definecolor[named]{drawColor}{rgb}{0.00,0.00,0.00}

\node[text=drawColor,anchor=base,inner sep=0pt, outer sep=0pt, scale=  1.10] at (143.34,  6.62) {$a_0$};
\end{scope}
\begin{scope}
\path[clip] (  0.00,  0.00) rectangle (332.44,166.22);
\definecolor[named]{drawColor}{rgb}{0.00,0.00,0.00}

\node[text=drawColor,rotate= 90.00,anchor=base,inner sep=0pt, outer sep=0pt, scale=  1.10] at (  8.14, 93.49) {mediana visibilit\`a};
\end{scope}
\begin{scope}
\path[clip] (  0.00,  0.00) rectangle (332.44,166.22);
\definecolor[named]{fillColor}{rgb}{1.00,1.00,1.00}

\path[fill=fillColor] (253.17,102.52) rectangle (311.53,144.82);
\end{scope}
\begin{scope}
\path[clip] (  0.00,  0.00) rectangle (332.44,166.22);
\definecolor[named]{drawColor}{rgb}{0.00,0.00,0.00}

\node[text=drawColor,anchor=base west,inner sep=0pt, outer sep=0pt, scale=  0.88] at (257.44,134.49) {algoritmo};
\end{scope}
\begin{scope}
\path[clip] (  0.00,  0.00) rectangle (332.44,166.22);
\definecolor[named]{drawColor}{rgb}{0.80,0.80,0.80}
\definecolor[named]{fillColor}{rgb}{1.00,1.00,1.00}

\path[draw=drawColor,line width= 0.6pt,line join=round,line cap=round,fill=fillColor] (257.44,118.83) rectangle (269.48,130.88);
\end{scope}
\begin{scope}
\path[clip] (  0.00,  0.00) rectangle (332.44,166.22);
\definecolor[named]{drawColor}{rgb}{0.97,0.46,0.43}

\path[draw=drawColor,line width= 0.6pt,line join=round] (258.64,124.85) -- (268.28,124.85);
\end{scope}
\begin{scope}
\path[clip] (  0.00,  0.00) rectangle (332.44,166.22);
\definecolor[named]{drawColor}{rgb}{0.80,0.80,0.80}
\definecolor[named]{fillColor}{rgb}{1.00,1.00,1.00}

\path[draw=drawColor,line width= 0.6pt,line join=round,line cap=round,fill=fillColor] (257.44,106.79) rectangle (269.48,118.83);
\end{scope}
\begin{scope}
\path[clip] (  0.00,  0.00) rectangle (332.44,166.22);
\definecolor[named]{drawColor}{rgb}{0.00,0.75,0.77}

\path[draw=drawColor,line width= 0.6pt,line join=round] (258.64,112.81) -- (268.28,112.81);
\end{scope}
\begin{scope}
\path[clip] (  0.00,  0.00) rectangle (332.44,166.22);
\definecolor[named]{drawColor}{rgb}{0.00,0.00,0.00}

\node[text=drawColor,anchor=base west,inner sep=0pt, outer sep=0pt, scale=  0.88] at (271.29,121.82) {fft};
\end{scope}
\begin{scope}
\path[clip] (  0.00,  0.00) rectangle (332.44,166.22);
\definecolor[named]{drawColor}{rgb}{0.00,0.00,0.00}

\node[text=drawColor,anchor=base west,inner sep=0pt, outer sep=0pt, scale=  0.88] at (271.29,109.78) {fit pesato};
\end{scope}
\begin{scope}
\path[clip] (  0.00,  0.00) rectangle (332.44,166.22);
\definecolor[named]{fillColor}{rgb}{1.00,1.00,1.00}

\path[fill=fillColor] (253.17, 42.15) rectangle (294.74, 96.50);
\end{scope}
\begin{scope}
\path[clip] (  0.00,  0.00) rectangle (332.44,166.22);
\definecolor[named]{drawColor}{rgb}{0.00,0.00,0.00}

\node[text=drawColor,anchor=base west,inner sep=0pt, outer sep=0pt, scale=  0.88] at (257.44, 86.17) {visibilit\`a};
\end{scope}
\begin{scope}
\path[clip] (  0.00,  0.00) rectangle (332.44,166.22);
\definecolor[named]{drawColor}{rgb}{0.80,0.80,0.80}
\definecolor[named]{fillColor}{rgb}{1.00,1.00,1.00}

\path[draw=drawColor,line width= 0.6pt,line join=round,line cap=round,fill=fillColor] (257.44, 70.51) rectangle (269.48, 82.55);
\end{scope}
\begin{scope}
\path[clip] (  0.00,  0.00) rectangle (332.44,166.22);
\definecolor[named]{drawColor}{rgb}{0.00,0.00,0.00}

\path[draw=drawColor,line width= 0.6pt,line join=round] (258.64, 76.53) -- (268.28, 76.53);
\end{scope}
\begin{scope}
\path[clip] (  0.00,  0.00) rectangle (332.44,166.22);
\definecolor[named]{drawColor}{rgb}{0.80,0.80,0.80}
\definecolor[named]{fillColor}{rgb}{1.00,1.00,1.00}

\path[draw=drawColor,line width= 0.6pt,line join=round,line cap=round,fill=fillColor] (257.44, 58.46) rectangle (269.48, 70.51);
\end{scope}
\begin{scope}
\path[clip] (  0.00,  0.00) rectangle (332.44,166.22);
\definecolor[named]{drawColor}{rgb}{0.00,0.00,0.00}

\path[draw=drawColor,line width= 0.6pt,dash pattern=on 2pt off 2pt ,line join=round] (258.64, 64.49) -- (268.28, 64.49);
\end{scope}
\begin{scope}
\path[clip] (  0.00,  0.00) rectangle (332.44,166.22);
\definecolor[named]{drawColor}{rgb}{0.80,0.80,0.80}
\definecolor[named]{fillColor}{rgb}{1.00,1.00,1.00}

\path[draw=drawColor,line width= 0.6pt,line join=round,line cap=round,fill=fillColor] (257.44, 46.42) rectangle (269.48, 58.46);
\end{scope}
\begin{scope}
\path[clip] (  0.00,  0.00) rectangle (332.44,166.22);
\definecolor[named]{drawColor}{rgb}{0.00,0.00,0.00}

\path[draw=drawColor,line width= 0.6pt,dash pattern=on 4pt off 2pt ,line join=round] (258.64, 52.44) -- (268.28, 52.44);
\end{scope}
\begin{scope}
\path[clip] (  0.00,  0.00) rectangle (332.44,166.22);
\definecolor[named]{drawColor}{rgb}{0.00,0.00,0.00}

\node[text=drawColor,anchor=base west,inner sep=0pt, outer sep=0pt, scale=  0.88] at (271.29, 73.50) {0.05};
\end{scope}
\begin{scope}
\path[clip] (  0.00,  0.00) rectangle (332.44,166.22);
\definecolor[named]{drawColor}{rgb}{0.00,0.00,0.00}

\node[text=drawColor,anchor=base west,inner sep=0pt, outer sep=0pt, scale=  0.88] at (271.29, 61.46) {0.3};
\end{scope}
\begin{scope}
\path[clip] (  0.00,  0.00) rectangle (332.44,166.22);
\definecolor[named]{drawColor}{rgb}{0.00,0.00,0.00}

\node[text=drawColor,anchor=base west,inner sep=0pt, outer sep=0pt, scale=  0.88] at (271.29, 49.41) {0.9};
\end{scope}
\end{tikzpicture}
